{
  "magicSchools": [
    {
      "title": "ms_void",
      "description": "Description void",
      "vague": "w2",
      "extension": "not_known_yet"
    },
    {
      "title": "ms_enchantment",
      "description": "Description enchantment",
      "vague": "w2",
      "extension": "not_known_yet"
    },
    {
      "title": "ms_demonology",
      "description": "Description demonology",
      "vague": "w2",
      "extension": "not_known_yet"
    },
    {
      "title": "ms_chronomancy",
      "description": "Description chronomancy",
      "vague": "w2",
      "extension": "not_known_yet"
    },
    {
      "title": "ms_mind",
      "description": "Description mind",
      "vague": "w2",
      "extension": "not_known_yet"
    },
    {
      "title": "ms_apprentice",
      "description": "Description apprentice",
      "vague": "w2",
      "extension": "not_known_yet"
    },
    {
      "title": "ms_dukas",
      "description": "Description dukas",
      "vague": "w2",
      "extension": "not_known_yet"
    },
    {
      "title": "ms_blood",
      "description": "Description blood",
      "vague": "w2",
      "extension": "not_known_yet"
    },
    {
      "title": "ms_bard",
      "description": "Description bard",
      "vague": "w2",
      "extension": "not_known_yet"
    },
    {
      "title": "ms_cartomancy",
      "description": "Description cartomancy",
      "vague": "w2",
      "extension": "not_known_yet"
    },
    {
      "title": "ms_elementalism",
      "description": "Description elementalism",
      "vague": "w2",
      "extension": "not_known_yet"
    }
  ]
}